income:0
money:0
is_connected_to_network:0
loan-threshold-30:0
loan-threshold-20:0
upgrade-1:0
upgrade-2:0
upgrade-3:0
upgrade-4:0
upgrade-5:0
unflipped:0
sell_cotton:0
money_cotton:0
coal_demand:0
move_coal_from_network:0
move_coal_from_other:0
iron_demand:0
move_iron_from_network:0
move_iron_from_other:0
link-canal-1:0
link-canal-2:0
link-canal-3:0
link-canal-4:0
link-canal-5:0
link-canal-6:0
link-canal-7:0
link-canal-8:0
link-canal-9:0
link-canal-10:0
link-canal-11:0
link-canal-12:0
link-canal-13:0
link-canal-14:0
link-canal-15:0
link-canal-16:0
link-canal-17:0
link-canal-18:0
link-canal-19:0
link-canal-20:0
link-canal-21:0
link-canal-22:0
link-canal-23:0
link-rail-1:0
link-rail-2:0
link-rail-3:0
link-rail-4:0
link-rail-5:0
link-rail-6:0
link-rail-7:0
link-rail-8:0
link-rail-9:0
link-rail-10:0
link-rail-11:0
link-rail-12:0
link-rail-13:0
link-rail-14:0
link-rail-15:0
link-rail-16:0
link-rail-17:0
link-rail-18:0
link-rail-19:0
link-rail-20:0
link-rail-21:0
link-rail-22:0
link-rail-23:0
link-rail-24:0
link-rail-25:0
link-rail-26:0
link-rail-27:0
link-rail-28:0
link-rail-29:0
link-rail-30:0
link-rail-31:0
link-rail-32:0
link-rail-33:0
link-rail-34:0
link-rail-35:0
tech_id-1:0
tech_id-2:0
tech_id-3:0
tech_id-4:0
tech_id-5:0
tech_id-6:0
tech_id-7:0
tech_id-8:0
tech_id-9:0
tech_id-10:0
tech_id-11:0
tech_id-12:0
tech_id-13:0
tech_id-14:0
tech_id-15:0
tech_id-16:0
tech_id-17:0
tech_id-18:0
tech_id-19:0
tech_id-20:0
tech_id-21:0
tech_id-22:0
tech_id-23:0
tech_id-24:0
build-1:0
build-2:0
build-3:0
build-4:0
build-5:0
